longitude,latitude,nameEn,nameBn
90.4061707879,23.7315809671,Ibrahim Medical College,ইব্রাহিম মেডিকেল কলেজ
90.4125287522,23.7476184168,Pioneer Hospital & Dental College,পাইওনীয়ার হাসপাতাল 
90.3796295567,23.7450935755,Omar Sultan Medical,ওমর সুলতান মেডিকেল
90.3842548776,23.7431894979,Central Hospital,কেন্দ্রীয় হাসপাতাল
90.385162616,23.745364808,Greenlife Hospital,গ্রীন লাইফ হাসপাতাল
90.3863730588,23.7490933647,Comfort Hospital,কমফোর্ট হাসপাতাল
90.3762894871,23.7782132266,Probin Hitoishi Shangha & Hospital,প্রবীণ হিতৈষী সংঘ এন্ড হাসপাতাল 
90.4169635191,23.7354832042,Central Police Hospital,কেন্দ্রীয় পুলিশ হাসপাতাল
90.4037056435,23.7102164246,Mitforod Hospital,মিডফোর্ড হাসপাতাল
90.3897766807,23.7407029277,Compath ltd,কম্পেত লিমিটেড
90.3826129477,23.7434802717,Ganoshastho Nagar Hospital,গণস্বাস্থ্য নগর হাসপাতাল
90.3853977886,23.744286731,Dhanmondi hospital,ধানমন্ডি হাসপাতাল
90.3833185789,23.7451046794,New Al-rajhi hospital,নিউ আল-রাজি হাসপাতাল
90.3862152597,23.7455131594,Dhaka renal centre & Genarel hospital,ঢাকা রেনাল সেন্টার এন্ড জেনারেল হাসপাতাল
90.3852965852,23.752331591,Shomirta hospital,শমরিতা হাসপাতাল
90.4082238305,23.743257048,Monowara hospital,মনোয়ারা হাসপাতাল
90.4092311354,23.7498357325,Dhaka Community hospital,ঢাকা কমিউনিটি হাসপাতাল
90.4011832069,23.7477796291,SPRC & general hospital,এস পি আর সি এন্ড জেনারেল হাসপাতাল
90.3901835577,23.7589612449,Al-Raji hospital,আল-রাজি হাসপাতাল
90.3925907271,23.7473132673,Padma general hospital,পাদ্মা জেনারেল হাসপাতাল
90.3664833554,23.7567622883,Almanara hospital,আল মনোরা হাসপাতাল
90.374724841,23.7569637326,Mother Care Hospital,মাদার কেয়ার হাসপাতাল
90.3577002638,23.7704030653,Aitime hospital,অল টাইম হাসপাতাল
90.3617221678,23.773539781,Shayamoli Orthopedic genarel hospital,শ্যামলী অর্থোপেডিক জেনারেল হাসপাতাল
90.3624829955,23.7741219696,Ai-muhit genarel hospital,আল-মুহিত জেনারেল হাসপাতাল
90.3742722823,23.7546055922,Muzibunnessa Eye hospital,মুজিবুন্নেছা চক্ষু হাসপাতাল
90.3746029365,23.7497896556,Nibedita Nursing home,নিবেদিত নার্সিং হোম
90.3722901913,23.7450587369,IBNA SHINA D-lab & Consultation Centre,ইবনে সিনা ডি-ল্যাব কন্সুলেসন সেন্টার
90.375072148,23.7457607688,Gastoliver hospital,গাস্টোলিভার হাসপাতাল
90.3745635828,23.7413748735,Medinova Medical service Ltd.,মেডিনভা মেডিকেল সার্ভিস লিমিটেড
90.3751221167,23.7410158475,T&T General hospital,টি এন্ড টি জেনারেল হাসপাতাল
90.3702694802,23.7460862989,Noor-E hospital,নুর-ই হাসপাতাল
90.3799357664,23.7452334439,Green Eye hospital,গ্রীন চক্ষু হাসপাতাল
90.38047444,23.7453252365,Conscious hospital,কনসাস হাসপাতাল
90.381866246,23.7434002867,Bangladesh Eye Hospital,বাংলাদেশ চক্ষু হাসপাতাল
90.4067053011,23.7907492851,National Medical Centre,ন্যাশনাল মেডিকেল সেন্টার
90.3695088076,23.7500150336,Bangladesh Medical College & Hospital,বাংলাদেশ মেডিকেল কলেজ এন্ড হাসপাতাল
90.3856235134,23.7457418748,Dhaka General Hospital,ঢাকা জেনারেল হাসপাতাল
90.410084762,23.7376237296,Islami Bank Central Hospital,ইসলামী ব্যাংক কেন্দ্রীয় হাসপাতাল
90.4200306355,23.7649788137,Mahanagar Hospital,মহানগর হাসপাতাল
90.4135550873,23.7895567152,Cardihope Heart Center & Hospital,কার্ডিহোপ হার্ট সেন্টার এন্ড হাসপাতাল 
90.412522695,23.7489511952,Pioneer General Hospital,পাইওনীয়ার জেনারেল হাসপাতাল 
90.387773013,23.7385583984,General Hospital,জেনারেল হাসপাতাল
90.4008762963,23.7712924572,Phoenix Medical Centre Ltd.,ফনিক্স মেডিকেল সেন্টার লিমিটেড
90.4090763899,23.779459243,Cancer Hospital,ক্যান্সার হাসপাতাল
90.3689246037,23.7700061487,National Heart Inst.,ন্যাশনাল হার্ট ইন্সটিটিউড 
90.3704791345,23.7689137756,Shohrawardi Medical College & Hospital,সরোয়ার্দী মেডিকেল কলেজ এন্ড হাসপাতাল
90.3823813508,23.7450249153,Mordern Daignostic,মর্ডান ডাইগনস্টিক
90.3802446945,23.7512833981,Bangladesh Pails niramoi candro,বাংলাদেশ পাইস নিরাময় কেন্দ্র
90.3657125213,23.7713774441,Shefa Nursing Home,শেফা নার্সিং হোম
90.3840806144,23.7585047334,Islamia Eye Hospital,ইসলামিয়া চক্ষু হাসপাতাল
90.3950536547,23.7389358753,BSMRMURC / IPGMR Hospital,বি এস এম আর এম ইউ আর সি / আই পি এম আর হাসপাতাল
90.3568187833,23.7569473238,Digital Diagnostic & Hospital,ডিজিটাল ডাইগনাস্টিক এন্ড হাসপাতাল
90.3672077367,23.7681527171,Dhaka General & Orthopedic Hospital,ঢাকা জেনারেল এন্ড অর্থোপেডিক হাসপাতাল
90.3662389043,23.7566054597,Millennium Heart & General Hospital,মিলিনিয়াম হার্ট এন্ড জেনারেল হাসপাতাল
90.3655173642,23.753996376,City Hospital,সিটি হাসপাতাল
90.3702,23.754683,Peoples Hospital,পিপলস হাসপাতাল
90.4201021296,23.7492597677,"Khidmah Hospital, Khilgaon","খিদমাহ হাসপাতাল, খিলগাঙ"
90.3987192542,23.7769737946,ICCDR Hospital,আই সি সি ডি আর হাসপাতাল
90.3598879177,23.7783690868,Ibn Sina Hospital & Diagonstic,ইবনে  সিনা হাসপাতাল এন্ড ডাইগনস্টিক 
90.3707950714,23.8023900048,Al Helal Heart Hospital,আল হেলাল হার্ট হাসপাতাল
90.36789529,23.8153635258,Mental Hospital,মানুষিক হাসপাতাল
90.3665968316,23.8111715975,Royal Hospital private ltd.,রয়েল হাসপাতাল প্রাইভেট লিমিটেড
90.3545188429,23.7992338445,Lion Doctor Jafar Khan Eye Hospital,লায়ন ডক্টর জাফর খান চক্ষু হাসপাতাল
90.362598885,23.8043023178,B A V S Maternity,বি এ ভি এস মাতৃ সনদ
90.361749127,23.803069757,Shisu ( Children ) hospital,শিশু হাসপাতাল
90.3794491747,23.7797764691,Lion's Eye Hospital,লায়ন্স চক্ষু হাসপাতাল
90.373633,23.8064571697,Mirpur General Hospital,মিরপুর জেনারেল হাসপাতাল
90.35305,23.783583,B I H M Hospital,বি আই আইচ এম হাসপাতাল
90.3725,23.821528,Shishu Hospital,শিশু হাসপাতাল
90.3547346398,23.7993832939,Medianet Medical Centre,মিডিয়ানেট মেডিকাল সেন্টার
90.350083,23.796583,Shah Ali General Hospital,শাহ আলী জেনারেল হাসপাতাল
90.3683964572,23.7791688629,Sabeka General Hospital,সাবেক জেনারেল হাসপাতাল
90.3620611671,23.8029308472,Shishu Sasthaya Hospital,শিশু সাদিয়া হাসপাতাল
90.3540755781,23.7976470856,BM Hospital,বি এম হাসপাতাল
90.3879718562,23.8033210673,Homeophathic Medical College & Hospital,হোমিওপ্যাথিক মেডিকেল কলেজ এন্ড হাসপাতাল
90.4091517929,23.790110997,Bamrungrad Hospital,বামরুগ্রাদ হাসপাতাল 
90.3933264131,23.7996474352,Cantonement Genarel Hospital,ক্যান্টনমেন্ট জেনারেল হাসপাতাল
90.3914693672,23.8836957242,Uttara Homeo Medical College,উত্তরা হোমিও মেডিকেল কলেজ
90.3968915544,23.8747854031,Northern Medical College & Hospital,নর্দান মেডিকেল কলেজ এন্ড হাসপাতাল
90.3844045675,23.8911759405,Turag Medical Center,তুরাগ মেডিকেল সেন্টার
90.4039227945,23.8555722569,Jahanara Clinic,জাহানারা ক্লিনিক
90.4027772859,23.8745781848,Nostrum Hospital,নসট্রাম হাসপাতাল
90.3999032011,23.8702969125,R.M.C Hospital,আর এম সি হাসপাতাল
90.4026076055,23.8675129953,Al-Ashraf Genarel Hospital,আল- আশরাফ জেনারেল হাসপাতাল
90.3956720444,23.8676404387,Jabal-E-Noor Hospital,জাবাল-ই-নুর হাসপাতাল
90.400689412,23.8643400787,Bangladesh Diabetic Shamity,বাংলাদেশ ডাইবেটিস সমিতি 
90.3998504377,23.870217,"RMP Hospital, Road-5, Sector-7","আর এম পি হাসপাতাল, রোড- ৫, সেক্টর -৭"
90.4173735135,23.8684002811,"The Medi Care Clinic & Diagnostic, Chalabon",দি মেডি কেয়ার ক্লিনিক এন্ড  ডাইগনস্টিক সেন্টার
90.4034143081,23.870878335,American Super Hospital,আমেরিকান সুপার হাসপাতাল
90.402333,23.871087665,"IC Hospital / Fahad Hospital, Sec-6","আই সি হাসপাতাল / ফাহাদ হাসপাতাল, সেক-৬"
90.3880053424,23.7987348853,Dhaka Dental College,ঢাকা ডেন্টাল কলেজ
90.354886155,23.798157028,Amanat Shah Hospital,আমানত শাহ হাসপাতাল
90.3553610713,23.7991849532,BNS Dhaka Eye Hospital,বি আন এস ঢাকা চক্ষু হাসপাতাল
90.3814284325,23.890839865,Manama Genaral Hospital,মানামা জেনারেল হাসপাতাল
90.4017196802,23.8676945306,Crescent Hospital,ক্রিসেন্ট হাসপাতাল
90.4004792787,23.8751067925,Greenland Hospital,গ্রিনল্যান্ড হাসপাতাল
90.4151087704,23.8054733626,United Hospital,ইউনাইটেড হাসপাতাল
90.388152975,23.78844665,Hightech Multicare Hospital,হাইটেক মাল্টিকেয়ার হাসপাতাল
90.3774181908,23.8037057385,Ahsania Mission Cancer Hospital,আহসানিয়া মিশন ক্যান্সার হাসপাতাল
90.3928527315,23.8788728483,Maulana Vhashani Medical College Hospita,মাওলানা ভাসানী মেডিকেল কলেজ হাসপাতাল
90.4027772859,23.8745781848,Nostrum Hospital,নসট্রাম হাসপাতাল
90.4024485798,23.8695700394,Pitch Baled Hospital,পিছ বলেড হাসপাতাল
90.4038814609,23.8707014209,Bangladesh Kuwait Friend Hospital,বাংলাদেশ কুয়েত বন্ধু হাসপাতাল
90.4015870631,23.8643733912,Faith Genarel Hospital,ফাইট জেনারেল হাসপাতাল
90.402193405,23.8576534772,Uttara Central Hospital,উত্তরা কেন্দ্রীয় হাসপাতাল
90.3997497042,23.8604533746,Fortun Dental College & Hospital,ফরচুন ডেন্টাল কলেজ এন্ড হাসপাতাল
90.3944044292,23.8677612859,Lubna Genarel Hospital,লুবনা জেনারেল হাসপাতাল
90.3956920431,23.7763178624,Aysa Memorial Hospital,আয়েশা মেমোরিয়াল হাসপাতাল
90.3870229283,23.7986457073,Marks Tower & General Hospital,মার্ক্স টাওয়ার এন্ড জেনারেল হাসপাতাল
90.4254204986,23.7856735643,Badda General Hospital,বাড্ডা জেনারেল হাসপাতাল
90.4149106974,23.8042713072,Continental Hospital Ltd.,কন্টিনেন্টাল হাসপাতাল লিমিটেড
90.4123960732,23.7940222663,Gulshan Ma O Shishu Hospital,গুলশান মা ও শিশু হাসপাতাল
90.4129285918,23.7942126232,Protoy Mental Hospital,প্রত্যয় মেন্টাল হাসপাতাল
90.4057717287,23.7759204642,Infection Diseases Hospital,ইনফেকশন ডাইজেসিস হাসপাতাল
90.43104551,23.8105387128,Appolo Hospital,অ্যাপোলো  হাসপাতাল
90.4098439152,23.7781712354,T B Hospital,টি বি হাসপাতাল
90.399530594,23.8181389408,CMH,সি এম আইচ
90.4010275635,23.8581632941,Uttara Wemen Hospital,উত্তরা মহিলা হাসপাতাল
90.3996164377,23.7818686919,Quality Hospital Colony,কুয়ালিটি হাসপাতাল কলনী
90.4263945748,23.7779461536,Al Sami Hospital,আল সামি হাসপাতাল
90.4263440944,23.7730873703,Asian General Hospital,এশিয়ান জেনারেল হাসপাতাল
90.3998504377,23.870217,RMP Hospital,আর এম পি হাসপাতাল
90.402333,23.8713160932,Ichi Hospital / Fahad Hospital,আইছি হাসপাতাল/ ফাহাদ হাসপাতাল
90.3997256612,23.7730537596,Metropolitan Hospital,মেট্রোপলিটন হাসপাতাল
90.4042330596,23.8678936703,Comunity Hospital,কমিউনিটি হাসপাতাল
90.3673659865,23.8107656718,Red Plus Hospital,রেড প্লাস হাসপাতাল
90.3516893197,23.8009803164,Unique General Hospital,ইউনিক জেনারেল হাসপাতাল
90.3665968316,23.8111715975,Royal Hospital Private Ltd.,রয়েল হাসপাতাল প্রাইভেট লিমিটেড
90.3645554134,23.8213255328,Aroggo Hospital,আরোগ্য হাসপাতাল
90.3614862746,23.803598057,O S B Eye Hospital,ও এস বি চক্ষু হাসপাতাল
90.3618654301,23.8038192872,National Heart Foundation & Hospital,ন্যাশনাল হার্ট ফাউন্ডেশন এন্ড হাসপাতাল
90.361749127,23.803069757,Shisu Hospital,শিশু হাসপাতাল
90.3553455801,23.7996568723,B N S B Dhaka Eye Hospital,বি আন এস ঢাকা চক্ষু হাসপাতাল
90.3562381027,23.8169876573,Rupnagar General Hospital,রূপ নগর জেনারেল হাসপাতাল
90.3673648147,23.8090186863,Dr: Azmol Hospital,ডাক্তার আজমল হাসপাতাল
90.3677072853,23.8095383493,Rahima Maternity Hospital,রহিমা মাতৃ সদন
90.3489120525,23.8113062553,Trust Adhunik Hospital,ট্রাস্ট আধুনিক হাসপাতাল
90.3563034182,23.80011203,Busra General Hospital,বুশরা জেনারেল হাসপাতাল
90.364767,23.777017,All Markajul Islami Hospital,আল মারকাজুল ইসলাম হাসপাতাল
90.38828022,23.7882667032,Hi-tech Multicare Hospital,হাই-টেক মাল্টি কেয়ার হাসপাতাল
90.3480283969,23.7866035692,Selina General Hospital,সেলিনা জেনারেল হাসপাতাল
90.3537742637,23.7889857232,Dr. Salauddin Medical College Hospital,ডাক্তার সালাউদ্দিন মেডিকেল হাসপাতাল
90.3538286788,23.7882098616,Delta Hospital,ডেলটা হাসপাতাল
90.3531749217,23.7835580157,BIHM Hospital,বি আই আইচ এম হাসপাতাল
90.3599954437,23.778485214,IBN Hospital,আই বি আন হাসপাতাল
90.3700658584,23.7734513754,RIHD Hospital,আর আই আইচ হাসপাতাল
90.3696526221,23.7745102935,National Eye Science Ins. & Hospital,ন্যাশনাল চক্ষু সাইন্স ইন্সঃ এন্ড হাসপাতাল
90.376377742,23.7779736776,Probin Hospital,প্রবীণ হাসপাতাল
90.374269271,23.7935080391,Finix Hospital,ফিনিক্স হাসপাতাল
90.3605631473,23.7781701045,Fuad Al Khatib Hospital,ফুয়াদ আল কেতিব হাসপাতাল
90.3619050991,23.7778746044,Ibne Sina Hospital,ইবনে সিনা হাসপাতাল
90.3684641709,23.7682507073,Dhaka Lab,ঢাকা ল্যাব
90.367130395,23.7704894342,D S K Hospital,ডি এস কে হাসপাতাল
90.372333,23.7576,Eastern Hospital,ইস্টার্ন হাসপাতাল
90.3696803896,23.7539118881,Nirupam Hospital,নিরুপম হাসপাতাল
90.3593274482,23.7411050759,Sikder Medical College,সিকদার মেডিকেল কলেজ
90.3600938452,23.7574118679,Nagar Matrisadan,নগর মাতৃ সদন
90.3657801005,23.7537481783,Al-noor Eye hospital,আল নুর চক্ষু হাসপাতাল
90.3680900294,23.7684020098,BDM Hospital,বি ডি এম হাসপাতাল
90.3678184146,23.7701393221,Unique Medical Center,ইউনিক মেডিকেল সেন্টার
90.3674768585,23.7697677073,Orthopedic Care Recharch & Research Rebilitation C,অর্থোপেডিক কেয়ার রিচার্স এন্ডদ
90.3667992927,23.769574556,Abedin General Hospital,আবেদিন জেনারেল হাসপাতাল
90.3657212771,23.7628022979,Ma & Shishu Hospital,মা এন্ড শিশু হাসপাতাল
90.3660634511,23.7564596255,Al-Manar Hospital,আল-মানার হাসপাতাল
90.3669368405,23.7529966041,Vision Eye Hospital,ভিসন চক্ষু হাসপাতাল
90.3677322233,23.7536630938,Euro Bangla Heart Hospital,ইউরো বাংলা হার্ট হাসপাতাল
90.369617,23.755933,Asian Hospital,এশিয়ান হাসপাতাল
90.3738593625,23.7571857886,Bangladesh Cancer Faundation Hospital,বাংলাদেশ সেন্টার ফাউন্ডেশন হাসপাতাল
90.3728357251,23.757945287,Yamagata Dhaka Friendship Hospital,ইয়ামারা ঢাকা ফ্রেন্ডশিপ হাসপাতাল
90.3673735465,23.7725124678,Sebika General Hospital,সেবিকা জেনারেল হাসপাতাল
90.3675837175,23.7720921258,Trauma Orthopedic Hospital,তারাউমা অর্থোপেডিক হাসপাতাল
90.3679865452,23.7711288421,Crescent Hospital,ক্রিসেন্ট হাসপাতাল
90.3683718587,23.7698678161,Medi Prime Hospital,মেডি প্রাইম হাসপাতাল
90.4286404177,23.7440734703,Razia Nursing Home,রাজিয়ান নার্সিং হোম
90.4053608399,23.7249959002,Railway Hospital,রেলওয়ে হাসপাতাল
90.373191789,23.7554742141,D-Pham Hospital,দি-পাম হাসপাতাল
90.3744125375,23.7562677006,Pan Care Hospita,পন কেয়ার হাসপাতাল
90.3692453484,23.7524961207,Bangladesh Heart & General Hospital,বাংলাদেশ হার্ট এন্ড জেনারেল হাসপাতাল
90.3685293568,23.7507325549,Ahmed Medical Centre,আহমেদ মেডিকেল সেন্টার
90.3678067368,23.7504259888,City General Hospital & Diagonstics,সিটি  জেনারেল হাসপাতাল এন্ড  ডাইগনস্টিক
90.396028334,23.7387209579,Bardem Hospita,বারডেম হাসপাতাল
90.3999929565,23.7472058507,Al Baraka Kidney Hospital,আল বারাকা কিডনি হাসপাতাল
90.4027411607,23.7465300628,Holly Family Hospital,হোলী ফেমেলি হাসপাতাল
90.407997289,23.7491280919,Rasmono Hospital,রাসমন হাসপাতাল
90.4055043824,23.7486625491,Ad Deen Hospital,আদ দ্বীন হাসপাতাল
90.3755138766,23.7389933732,Japan Friendship Hospital,জাপান ফ্রেন্ডশিপ হাসপাতাল
90.423533,23.736417,Railway Hospital,রেলওয়ে হাসপাতাল
90.4259027232,23.7219642768,Medilink Mother & Children  Health center,মেডিলিঙ্ক মা এন্ড চাইল্ড হেলথ সেন্টার
90.430133,23.7317543838,500 Beds Hospital,৫০০ বেড হাসপাতাল
90.438917,23.7428,Dhaka Diagnostic center,ঢাকা  ডাইগনস্টিক সেন্টার
90.4470401697,23.7390169374,Mother & Child Health Saba center,মা এন্ড শিশু হেলথ সেবা সেন্টার
90.422167,23.74315,Shandhani Dental Clinic,সন্ধানী ডেন্টাল ক্লিনিক
90.4216156418,23.7386369248,Islami Bank Hospital,ইসলামী ব্যাংক হাসপাতাল
90.4219240757,23.7383356606,Pan Pacific Hospital,প্যান প্যাসিফিক হাসপাতাল
90.424583,23.7487075135,Nagar Matri Sadan,নগর মাতৃ সদন 
90.4005521681,23.7146310516,Khalekunnessa Genaral Hospital,খালেদুন্নেসা জেনারেল হাসপাতাল
90.3875770926,23.7242936139,Azimpur Meternity Hospitel,আজিমপুর মাতৃসদন হাসপাতাল
90.3633352419,23.7118918586,River Sign Hospital,রিভার সিং হাসপাতাল
90.3971665863,23.7257801236,Dhaka Medical College & Hospital,ঢাকা মেডিকেল কলেজ এন্ড হাসপাতাল
90.405063195,23.7139532696,Dhaka Mohanagar General Hospital,ঢাকা মহা নগর জেনারেল হাসপাতাল
90.4009352532,23.7131978121,Dhaka Hospital,ঢাকা হাসপাতাল
90.4012681274,23.7134666665,New Dhaka Hospital,নিউ ঢাকা হাসপাতাল
90.4120144854,23.7107866513,National Medical Hospital,ন্যাশনাল মেডিকেল হাসপাতাল
90.418967,23.702040332,Capital General Hospital,ক্যাপিটাল জেনারেল হাসপাতাল
90.434171775,23.7091295085,Afroja Nurshing Home & Hospital,আফরোজা নার্সিং হোম এন্ড হাসপাতাল
90.4336305456,23.7110030657,Al Baraka Hospital,আল বারাকা হাসপাতাল
90.4367717165,23.7115979281,Family Health Clinic,ফেমিলি হেলথ ক্লিনিক 
90.4342932234,23.7080022695,Modern Hospital,মর্ডান হাসপাতাল
90.4391290029,23.7112570869,Ali General Hospital,আলী জেনারেল হাসপাতাল
90.4356629812,23.7109784794,Bangladesh Community Hospital,বাংলাদেশ কমিউনিটি হাসপাতাল
90.4241039037,23.6937337314,Dristrict Veterinary Hospital,জেলা ভেতেরিনারি হাসপাতাল
90.4221602724,23.7142856256,Dhaka Zilla Hospital,ঢাকা জেলা হাসপাতাল
90.4244427371,23.7061504595,Care Plus,কেয়ার প্লাস 
90.4226620539,23.7123,Jahangir Nagar Hospital,জাহাঙ্গীর নগর হাসপাতাল
90.432983,23.7099209461,Supreme General Hospital,সুপ্রীম জেনারেল হাসপাতাল
90.4352810269,23.7008211027,Free Friday Clinic (BRAC),ফ্রী ফ্রাইডে ক্লিনিক (বি আর এ সি)
90.4296191296,23.7073286162,Jonokolyan Medical Hall,জনকল্যাণ মেডিকেল হল
90.4236331566,23.7104759243,"Health Care Clinic (USAID), Doyagan",হেলথ কেয়ার ক্লিনিক (ইউ এস এ আই ডি)
90.4200664377,23.7170762054,Salauddin Hospital,সালাউদ্দিন হাসপাতাল
90.435537665,23.6947186919,Jurin Health Care Centre,জুরিন হেলথ কেয়ার সেন্টার
90.4326381027,23.6923757677,"BGME Health Center, Shikder Nursing","বি জি এম ই হেলথ সেন্টার, সিকদার নার্সিং "
90.3915374735,23.8864253417,Ahsania Mission Cancer & General Hospital,এশিয়ান মিশন সেন্টার এন্ড জেনারেল হাসপাতাল
90.409425832,23.8190737117,Kurmitola General Hospital,কুর্মিটোলা জেনারেল হাসপাতাল
90.3690390002,23.823519097,Mirpur Adhunic Hospittal,মিরপুর আধুনিক হাসপাতাল
90.3711649911,23.7759071093,Neuro Science Institute,নিউরো সাইন্স ইন্সটিটিউট
90.3832291085,23.7416076711,Lab Aid Hospital,ল্যাব এইড হাসপাতাল
90.3808850659,23.7526095874,Square Hospital,ইস্কোয়ার হাসপাতাল
